<svg xmlns="http://www.w3.org/2000/svg" xmlns:xlink="http://www.w3.org/1999/xlink" width="40.157" height="46.902" viewBox="0 0 40.157 46.902">
  <defs>
    <clipPath id="clip-path">
      <rect id="Rectangle_1696" data-name="Rectangle 1696" width="40.157" height="46.902" fill="#eb2b90"/>
    </clipPath>
  </defs>
  <g id="Group_3147" data-name="Group 3147" clip-path="url(#clip-path)">
    <path id="Path_1327" data-name="Path 1327" d="M10.039,13.41c0-1.162-.033-2.275.006-3.385A9.755,9.755,0,0,1,16.071.875a9.981,9.981,0,0,1,13.95,7.936c.146,1.293.076,2.61.1,3.917,0,.206,0,.412,0,.682h.592q3.766,0,7.532,0a1.728,1.728,0,0,1,1.886,2.147c-.455,3.982-.889,7.966-1.333,11.949q-.658,5.9-1.324,11.793a18.832,18.832,0,0,1-.408,2.733,6.613,6.613,0,0,1-6.545,4.86c-6.956.007-13.913.021-20.869-.02a7.363,7.363,0,0,1-2.69-.517,6.469,6.469,0,0,1-4.136-5.635q-.843-7.428-1.656-14.859c-.389-3.5-.783-7-1.161-10.5a1.67,1.67,0,0,1,1.779-1.954c2.545-.006,5.091,0,7.636,0h.61M13.4,20.08c.1.018.182.028.263.048a1.676,1.676,0,0,1-.387,3.326c-1.081.007-2.162.012-3.243,0a1.677,1.677,0,0,1-1.632-1.3c-.242-.988.373-1.793,1.6-2.089V16.792H3.568c0,.12-.008.208,0,.294q.422,3.819.847,7.638Q5.293,32.6,6.168,40.467A3.351,3.351,0,0,0,9.54,43.543q10.539.013,21.078,0a3.313,3.313,0,0,0,3.359-2.968c.369-3.15.706-6.3,1.057-9.455q.667-6,1.334-12c.085-.771.163-1.543.245-2.323H30.144v3.269c.182.049.35.084.512.138a1.678,1.678,0,0,1,1.136,1.745,1.639,1.639,0,0,1-1.508,1.491q-1.829.06-3.66,0a1.644,1.644,0,0,1-1.512-1.488,1.665,1.665,0,0,1,1.13-1.747c.173-.059.353-.1.506-.142V16.8H13.4Zm13.372-6.693c0-1.171.012-2.3,0-3.431a6.72,6.72,0,0,0-6.053-6.567,6.579,6.579,0,0,0-7.1,5.1,35.619,35.619,0,0,0-.32,4.9Z" transform="translate(0 0.001)" fill="#eb2b90"/>
    <path id="Path_1328" data-name="Path 1328" d="M102.325,199.973l2.985-3.729c.914-1.142,1.819-2.292,2.746-3.424a1.646,1.646,0,0,1,1.974-.507,1.615,1.615,0,0,1,.991,1.678,2.064,2.064,0,0,1-.393.943q-3.272,4.141-6.584,8.249a1.648,1.648,0,0,1-2.365.38q-2.467-1.619-4.91-3.273a1.672,1.672,0,1,1,1.875-2.766c1.222.8,2.432,1.615,3.683,2.448" transform="translate(-82.589 -165.371)" fill="#eb2b90"/>
  </g>
</svg>
